{
	"lenses": [
		{
			"id": 1,
			"prompt": "To make sure the emotions you create are the right ones, ask yourself these question:",
			"questions": [
				"What Emotions would I like my player to experience? Why?",
				"What emotions are my players having when they play now? Why?",
				"How can I bridge the gap between the emotions players are having and the emotions I'd like them to have?"
			],
			"quote": "People may forget what you said, but they'll never forget how you made them feel.",
			"quoteAuthor": "Maya Angelou",
			"title": "Emotion",
			"imageName": "Emotion",
			"categoriesIds": [0],
			"isFavorite": false
		},
		{
			"id": 2,
			"prompt": "To use this lens, stop thinking about your game, and start thinking about the experience of the player. Ask yourself these questions:",
			"questions": [
				"What experience do I want the player to have?",
				"What is essential to that experience?",
				"How can my game capture that essence?"
			],
			"title": "Essential Experience",
			"imageName": "Experience",
			"categoriesIds": [0],
			"isFavorite": false
		},
		{
			"id": 3,
			"prompt": "The places that we play exert tremendous influence on the design of your games. To make sure you aren't designing in a vacuum, ask yourself these questions:",
			"questions": [
				"What type of venue best suits the game I'm trying to create?",
				"Does my venue have special properties that will influence my game?",
				"What elements of my game are in harmony with my venue? What elements are not?"
			],
			"title": "Venue",
			"imageName": "Venue",
			"categoriesIds": [0],
			"isFavorite": false
		},
		{
			"id": 4,
			"prompt": "Surprise is so basic that we can easily forget about it. Use this lens to remind yourself to fill your game with interesting surprises. Ask yourself these questions:",
			"questions": [
				"What will surprise players when they play my game?",
				"Does the story in my game have surprises? Do the game rules? Does the artwork? The technology?",
				"Do your rules give players ways to surprise each other?",
				"Do your rules give players ways to surprise themselves?"
			],
			"title": "Surprise",
			"imageName": "Surprise",
			"categoriesIds": [0],
			"isFavorite": false
		},
		{
			"id": 5,
			"prompt": "Fun is desirable in nearly every game, though sometimes fun defies analysis. To maximize your game's fun, ask yourself these questions:",
			"questions": [
				"What parts of my game are fun? Why?",
				"What parts need to be more fun?"
			],
			"title": "Fun",
			"imageName": "Fun",
			"categoriesIds": [0],
			"isFavorite": false
		},
		{
			"id": 6,
			"prompt": "To use this lens, think about the player's true motivations - not just the goals your game has set forth, but the reason the player wants to achieve those goals. Ask yourself these questions:",
			"questions": [
				"What questions does my game put into the player's mind?",
				"What am I doing to make them care about these questions?",
				"What can I do to make them invent even more questions?"
			],
			"title": "Curiosity",
			"imageName": "Curiosity",
			"categoriesIds": [0],
			"isFavorite": false
		},
		{
			"id": 7,
			"prompt": "To use this lens, think about your players feelings about items, objects, and scoring in your game. Ask yourself these questions:",
			"questions": [
				"What is valuable to the players in my game?",
				"How can I make it more valuable to them?",
				"What is the relationship between value in the game and the player's motivations?",
			],
			"title": "Endogenous Value",
			"imageName": "Endogenous",
			"categoriesIds": [4],
			"isFavorite": false
		},
		{
			"id": 8,
			"prompt": "Every game has problems to solve. To use this lens, think about the problems your players must solve to succeed at your game. Ask yourself these questions:",
			"questions": [
				"What problems does my game ask the player to solve?",
				"Are there hidden problems to solve that arise as part of the gameplay?",
				"How can my game generate new problems so that players keep coming back?"
			],
			"title": "Problem Solving",
			"imageName": "Rubik",
			"categoriesIds": [4],
			"isFavorite": false
		},
		{
			"id": 9,
			"prompt": "To use this lens, take stock of what your game is truly made of. Consider each element separately, and then all of them together as a whole. Ask yourself these questions:",
			"questions": [
				"Is my game design using elements of all four types?",
				"Could my design be improved by enhancing elements in one or more of the categories?",
				"Are the four elements in harmony, reinforcing each other, and working toward a common theme?"
			],
			"title": "The Elemental Tetrad",
			"imageName": "Tetrad",
			"categoriesIds": [4],
			"isFavorite": false
		},
		{
			"id": 10,
			"prompt": "To use this lens, you must simultaneously see your game structure and the player experience. You may shift your focus from one to the other, but it is far better to view your game and experience holographically.",
			"questions": [
				"What elements of the game make the experience enjoyable?",
				"What elements of the game detract from the experience?",
				"How can I change game elements to improve the experience?"
			],
			"title": "Holographic Design",
			"imageName": "HolographicDesign",
			"categoriesIds": [2],
			"isFavorite": false
		},
		{
			"id": 11,
			"prompt": "To use this lens, consider the reason behind it all. Ask yourself these questions:",
			"questions": [
				"What is my theme?",
				"Am I using every means possible to reinforce that theme?",
			],
			"title": "Unification",
			"imageName": "Unification",
			"categoriesIds": [2],
			"isFavorite": false
		},
		{
			"id": 12,
			"prompt": "To use the Lens of Resonance, you must look for hidden power. Ask yourself these questions:",
			"questions": [
				"What is it about my game that feels powerful and special?",
				"When I describe my game to people, what ideas get them really excited?",
				"If I had no constraints of any kind, what would this game be like?",
				"I have certain instincts about how this game should be. What is driving those instincts?"
			],
			"title": "Resonance",
			"imageName": "Resonance",
			"categoriesIds": [0],
			"isFavorite": false
		},
		{
			"id": 13,
			"prompt": "To use this lens, stop looking at your game, or games like it. Instead, look everywhere else. Ask yourself these questions:",
			"questions": [
				"What is an experience I have had in my life that I would want to share with others?",
				"In what small way can I capture the essence of that - experience and put it into my game?"
			],
			"quote": "When you know how to listen, everybody is the guru.",
			"quoteAuthor": "Ram Dass",
			"title": "Infinite Inpsiration",
			"imageName": "InfiniteInpsiration",
			"categoriesIds": [2],
			"isFavorite": false
		},
		{
			"id": 14,
			"prompt": "To use this lens, think of your game as the solution to the problem. Ask yourself these questions:",
			"questions": [
				"What problem, or problems, am I really trying to solve?",
				"Have I been making assumptions about his game that really have nothing to do with its true purpose?",
				"Is a game really the best solution? Why?",
				"How will I be able to tell if the problem is solved?"
			],
			"title": "The Problem Statement",
			"imageName": "ProblemStatement",
			"categoriesIds": [2],
			"isFavorite": false
		},
		{
			"id": 15,
			"prompt": "To use this lens, you must consider the many constraints on your design. Your design is only finished when it can pass through all eight filters without requiring a change. Ask yourself these questions:",
			"questions": [
				"Does this game feel right?",
				"Will the intended audience like this game enough?",
				"Is this a well-designed game?",
				"Is this game novel enough?",
				"Will this game sell?",
				"Is it technically possible to build this game?",
				"Does this game meet our social and community goals?",
				"Do the play-testers enjoy this game enough?"
			],
			"title": "Eight Filters",
			"imageName": "EightFilters",
			"categoriesIds": [2],
			"isFavorite": false
		},
		{
			"id": 16,
			"prompt": "To use this lens, stop thinking positively, and start to seriously consider the things that could do horribly wrong with your game. Ask yourself these questions:",
			"questions": [
				"What could keep this game from being great?",
				"How can we stop that from happening?"
			],
			"quote": "Because the sage always confronts difficulties, he never experiences them.",
			"quoteAuthor": "Tao Te Ching",
			"title": "Risk Mitigation",
			"imageName": "RiskMitigation",
			"categoriesIds": [2],
			"isFavorite": false
		},
		{
			"id": 17,
			"prompt": "To use this lens, stop thinking about whether your game is fun to play, and start thinking about wether it is fun to play WITH. Ask yourself these questions:",
			"questions": [
				"If my game had no goal, would it be fun at all? If not, how can I change that?",
				"When people see my game, do they want to start interacting with it, even before they know what to do? If not, how can I change that?"
			],
			"title": "The Toy",
			"imageName": "Toy",
			"categoriesIds": [4],
			"isFavorite": false
		},
		{
			"id": 18,
			"prompt": "At the end of each prototype, when you are carefully mitigating risks and planning to do next, don't forget to check how you feel about your game with these important questions:",
			"questions": [
				"Am I filled with blinding passion about this game?",
				"Have I lost my passion, can I find it again?",
				"If the passion isn't coming back, shouldn't I be doing something else?"
			],
			"title": "Passion",
			"imageName": "Passion",
			"categoriesIds": [1],
			"isFavorite": false
		},
		{
			"id": 19,
			"prompt": "To use this lens, stop thinking about your game, and start thinking about your player. Ask yourself these questions about the people who will play your game:",
			"questions": [
				"In general, what do they like?",
				"What don't they like? Why?",
				"What do they expect to see in a game?",
				"If I were in their place, what would I want to see in a game?",
				"What would they like or dislike about my game in particular?"
			],
			"title": "The Player",
			"imageName": "Player",
			"categoriesIds": [3],
			"isFavorite": false
		},
		{
			"id": 20,
			"prompt": "To use this lens, consider what is holding your player's focus. Ask yourself these questions:",
			"questions": [
				"Does my game have clear goals? If not, how can I fix that?",
				"Are the goals of the player the same goals I intended?",
				"Are there parts of the game that distract players to the point they forget their goal? If so, can these distractions be reduced, or tied into the game goals?",
				"Does my game provide a steady stream of not-too-easy, not-too-hard challenges, taking into account the fact that the player's skill may be gradually improving?",
				"Are the player's skills improving at the rate I had hoped? If not, how can I change that?"
			],
			"title": "Flow",
			"imageName": "Flow",
			"categoriesIds": [3],
			"isFavorite": false
		},
		{
			"id": 21,
			"prompt": "To use this lens, think about the kinds of pleasure your game does and does not provide. Ask yourself these questions:",
			"questions": [
				"What pleasures does your game give to players? Can these be improved?",
				"What pleasures are missing from your experience? Why? Can they be added?"
			],
			"title": "Pleasure",
			"imageName": "Pleasure",
			"categoriesIds": [3],
			"isFavorite": false
		},
		{
			"id": 22,
			"prompt": "To use this lens, stop thinking about your game, and start thinking about what basic human needs it fullfills. Ask yourself these questions:",
			"questions": [
				"On which levels of Maslow's hierarchy is my game operating?",
				"How can I make my game fulfill more basic needs than it already is?",
				"On the levels my game is currently operating, how can it fulfill those needs even better?"
			],
			"title": "Needs",
			"imageName": "Needs",
			"categoriesIds": [3],
			"isFavorite": false
		},
		{
			"id": 23,
			"prompt": "Every game is a complex ecosystem of motivations. To examine them more closely, ask yourself these questions:",
			"questions": [
				"What motivations do players have to play my game?",
				"Which motivations are most internal? Which are most external?",
				"Which are pleasure seeking? Which are pain avoiding?",
				"Which motivations support each other?",
				"Which motivations are in conflict?"
			],
			"title": "Motivation",
			"imageName": "Motivation",
			"categoriesIds": [3],
			"isFavorite": false
		},
		{
			"id": 24,
			"prompt": "To ensure you harness the powerful motivation of novelty, ask yourself these questions:",
			"questions": [
				"What is novel about my game?",
				"Does my game have novelties throughout or just at the beginning?",
				"Do I have the right mix of novel and the familiar?",
				"When the novelty wears off, will players still enjoy the game?"
			],
			"quote": "Different isn't always better, but better is always different.",
			"quoteAuthor": "Scotty Meltzer",
			"title": "Novelty",
			"imageName": "Novelty",
			"categoriesIds": [3],
			"isFavorite": false
		},
		{
			"id": 25,
			"prompt": "To decide if your game is a good judge of the players, ask yourself these questions:",
			"questions": [
				"What does your game judge about the players?",
				"How does it communicate this judgment?",
				"Do they care about the judgment?",
				"Does the judgment make them want to improve?"
			],
			"title": "Judgment",
			"imageName": "Judgment",
			"categoriesIds": [3],
			"isFavorite": false
		},
		{
			"id": 26,
			"prompt": "It is said that \"timing is everything\". Our goal as designers is to create experiences, and experiences are easily spoiled when they are too short or too long. Ask yourself these questions to make yours just the right length:",
			"questions": [
				"What is it that determines the length of my gameplay activities?",
				"Are my players frustrated because the game ends too early? How can I change that?",
				"Are my players bored because the game goes on for too long? How can I change that?",
				"Setting a time limit can make gameplay more exciting. Is it a good idea for my game?",
				"Would a hierarchy of time structures help my game? That is, several short rounds that together constitute a large round?"
			],
			"title": "Time",
			"imageName": "Time",
			"categoriesIds": [4],
			"isFavorite": false
		},
		{
			"id": 27,
			"prompt": "To use this lens, think about the space in which your game really takes place when all surface elements are stripped away. Ask yourself these questions:",
			"questions": [
				"Is the space of this game discrete or continuous?",
				"How many dimensions does it have?",
				"What are the boundaries of the space?",
				"Are there sub-spaces? How are they connected?",
				"Is there more than one useful way to abstractly model the space of this game?"
			],
			"title": "Functional Space",
			"imageName": "FunctionalSpace",
			"categoriesIds": [4],
			"isFavorite": false
		},
		{
			"id": 28,
			"prompt": "To use this lens, think about that information changes during your game. Ask yourself these questions:",
			"questions": [
				"What are the objects in my game?",
				"What are the attributes of the objects?",
				"What are the possible states for each attribute? What triggers the state for each attribute?",
				"What state is known by the game only?",
				"What state is known by all the players?",
				"What state is known by some, or only one player?",
				"Would changing who knows what state improve my game in some way?"
			],
			"title": "The State Machine",
			"imageName": "StateMachine",
			"categoriesIds": [4],
			"isFavorite": false
		},
		{
			"id": 29,
			"prompt": "Change who has what information, and you change your game completely. To use this lens, think about who knows what and why.",
			"questions": [
				"What is known by the game only?",
				"What is known by all the players?",
				"What is known by some, or only one player?",
				"Would changing who knows what improve my game in some way?"
			],
			"title": "Secrets",
			"imageName": "Secrets",
			"categoriesIds": [0, 4],
			"isFavorite": false
		},
		{
			"id": 30,
			"prompt": "To make sure your game has interesting qualities of emergence, ask yourself these questions:",
			"questions": [
				"How many verbs do my players have?",
				"How many objects can each verb act on?",
				"How many ways can players achieve their goals?",
				"How many subjects do the players control?",
				"How do side effects change constraints?"
			],
			"title": "Emergence",
			"imageName": "Emergence",
			"categoriesIds": [4],
			"isFavorite": false
		},
		{
			"id": 31,
			"prompt": "To use this lens, think about what your players can do and what they can't, and why. Ask yourself these questions:",
			"questions": [
				"What are the operational actions in my game?",
				"What are the resultant actions?",
				"What resultant actions would I like to see? How can I change my game in order to make those possible?",
				"Am I happy with the ratio of resultant to operational actions?",
				"What actions do players with they could do in my game that they cannot? Can I somehow enable these, either as operational or resultant actions?"
			],
			"title": "Action",
			"imageName": "Action",
			"categoriesIds": [4],
			"isFavorite": false
		},
		{
			"id": 32,
			"prompt": "To ensure the goals of your game are appropriate and well balanced, ask yourself these questions:",
			"questions": [
				"What is the ultimate purpose of my game?",
				"Is that goal clear to the players?",
				"If there is a series of goals, do players understand that?",
				"Are the different goals related to each other in a meaningful way?",
				"Are my goals concrete, achievable, and rewarding?",
				"Do I have a good balance of short- and long-term goals?",
				"Do players have a chance to decide on their own goals?"
			],
			"title": "Goals",
			"imageName": "Goals",
			"categoriesIds": [4],
			"isFavorite": false
		},
		{
			"id": 33,
			"prompt": "To use this lens, look deep into your game until you can make out its most basic structure. Ask yourself these questions:",
			"questions": [
				"What are the foundational rules of my game? How do these differ from the operational rules?",
				"Are there \"laws\" or \"house rules\" that are forming as the game develops? Should these be incorporated into my game directly?",
				"Are there different modes in my game? Do these modes make things simpler, or more complex? Would the game be better with fewer mods? More modes?",
				"Who enforces the rules?",
				"Are the rules easy to understand, or is there confusion about them? If there is confusion, should I fix it by changing the rules or by explaining them more clearly?"
			],
			"title": "Rules",
			"imageName": "Rules",
			"categoriesIds": [4],
			"isFavorite": false
		},
		{
			"id": 34,
			"prompt": "To use this lens, stop looking at your game, and start looking at the skills you are asking of the players. Ask yourself these questions:",
			"questions": [
				"What skills does my game require from the player?",
				"Are there categories of skill that this game is missing?",
				"Which skills are dominant?",
				"Are these skills creating the experience that I want?",
				"Are some players much better at these skills than others? Does this make the game feel unfair?",
				"Can players improve their skills with practice?",
				"Does this game demand the right level of skill?"
			],
			"title": "Skill",
			"imageName": "Skill",
			"categoriesIds": [4],
			"isFavorite": false
		},
		{
			"id": 35,
			"prompt": "To use this lens, think about the chance of different events occuring in your game, and what those mean to your player. Ask yourself these questions:",
			"questions": [
				"What is the actual chance of a certain event occurring?",
				"What is the perceived chance?",
				"What value does the outcome of the event have? Can the value be quantified? Are there intangible aspects of the value that I'm not considering?",
				"Each action a player can take has a different expected value when I add up all the possible outcomes. Am I happy with these values? Do they give players interesting choices? Are they too rewarding, or too punishing?"
			],
			"title": "Expected Value",
			"imageName": "ExpectedValue",
			"categoriesIds": [4],
			"isFavorite": false
		},
		{
			"id": 36,
			"prompt": "To use this lens, focus on the parts of your game that involve randomness and risk, keeping in mind that those two things are not the same. Ask yourself these questions:",
			"questions": [
				"What in my game is truly random? What parts just feel random?",
				"Does the randomness give the players positive feelings of excitement and challenge, or does it give them negative feelings of hopelessness and lack of control?",
				"Would changing my probability distribution curves improve my game?",
				"Do players have the opportunity to take interesting risks in the game?",
				"What is the relationship between chance and skill in my game? Are there ways I can make random elements feel more like the exercise of a skill? Are there ways I can make exercising skills feel more like risk-taking?"
			],
			"title": "Chance",
			"imageName": "Chance",
			"categoriesIds": [4],
			"isFavorite": false
		},
		{
			"id": 37,
			"prompt": "To use this lens, evaluate the game from each player's point of view and skill level. Find a way to give each player a chance of winning that each will consider to be fair. Ask yourself these questions:",
			"questions": [
				"Should my game be symmetrical? Why?",
				"Should my game be asymmetrical? Why?",
				"Which is more important: that my game be a reliable measure of who has the most skill, or that it provide an interesting challenge to all players?",
				"If I want players of different skill levels to play together, what means will I use to make the game interesting and challenging for everyone?"
			],
			"title": "Fairness",
			"imageName": "Fairness",
			"categoriesIds": [4],
			"isFavorite": false
		},
		{
			"id": 38,
			"prompt": "Challenge is at the core of almost all gameplay. You could even say that a game is defined by its goals and challenges. When examining the challenges of your game, ask yourself these questions:",
			"questions": [
				"What are the challenges in my game?",
				"Are they too easy, too hard, or just right?",
				"Can my challenges accommodate a wide variety of skill levels?",
				"How does the level of challenge increase as the player succeeds?",
				"Is there enough variety in the challenges?",
				"What is the maximum level of challenge in my game?\n(What percentage of players do I want to finish my game?)"
			],
			"title": "Challenge",
			"imageName": "Challenge",
			"categoriesIds": [4],
			"isFavorite": false
		},
		{
			"id": 39,
			"prompt": "When we make meaningful choices, it lets us feel like the things we do matter. To use this lens, ask yourself these questions:",
			"questions": [
				"What choices am I asking the player to make?",
				"Are they meaningful? How?",
				"Am I giving the player the right number of choices? Would more make them feel more powerful? Would less make the game clearer?",
				"Are there any dominant strategies in my game?"
			],
			"title": "Meaningful Choices",
			"imageName": "MeaningfulChoices",
			"categoriesIds": [4],
			"isFavorite": false
		},
		{
			"id": 40,
			"prompt": "Giving a player the choice to play it safe for a low reward, or to take risk for a big reward is a great way to make your game interesting and exciting. To use this lens, ask yourself these questions:",
			"questions": [
				"Do I have triangularity now? If not, how can I get it?",
				"Is my attempt at triangularity balanced? That is, are the rewards commensurate with the risks?"
			],
			"title": "Triangularity",
			"imageName": "Triangularity",
			"categoriesIds": [4],
			"isFavorite": false
		},
		{
			"id": 41,
			"prompt": "To help determine how to balance skill and chance in your game, ask yourself these questions:",
			"questions": [
				"Are my players here to be judged (skill), or to take risks (chance)?\nSkill tends to be more serious than chance: Is my game serious of casual?",
				"Are parts of my game tedious? If so, will adding elements of chance enliven them?",
				"Do parts of my game feel too random? If so, will replacing elements of chance with elements of skill or strategy make the players feel more in control?"
			],
			"title": "Skill vs. Chance",
			"imageName": "Skill&Chance",
			"categoriesIds": [4],
			"isFavorite": false
		},
		{
			"id": 42,
			"prompt": "To make sure your game has a good balance of mental and physical elements, use this lens. Ask yourself these questions:",
			"questions": [
				"Are my players looking for mindless action, or an intellectual challenge?",
				"Would adding more places that involve puzzle-solving in my game make it more interesting?",
				"Are there places where the player can relax their brain, and just play the game without thinking?",
				"Can I give the player a choice—either succeed by exercising a high level of dexterity, or by finding a clever strategy that works with a minimum of physical skill?",
				"If \"1\" means all physical, and \"10\" means all mental, what number would my game get?"
			],
			"title": "Head and Hands",
			"imageName": "HeadHands",
			"categoriesIds": [4],
			"isFavorite": false
		},
		{
			"id": 43,
			"prompt": "Competitive games can satisfy the basic human urge to determine who is the most skilled. Use lens to ensure that people want to win your game. Ask yourself these questions:",
			"questions": [
				"Does my game give a fair measurement of player skill?",
				"Do people want to win my game? Why?",
				"Is winning this game something people can be proud of? Why?",
				"Can novices meaningfully compete at my game?",
				"Can experts meaningfully compete at my game?",
				"Can experts generally be sure they will defeat novices?"
			],
			"title": "Competition",
			"imageName": "Competition",
			"categoriesIds": [4],
			"isFavorite": false
		},
		{
			"id": 44,
			"prompt": "Collaborating and succeeding as a team is a special pleasure that can create lasting social bonds. Use this lens to study the cooperative aspects of your game. Ask yourself these questions:",
			"questions": [
				"Cooperation requires communication. Do my players have enough opportunity to communicate? How could communication be enhanced?",
				"Are my players friends already, or are they strangers? If they are strangers, can I help them break the ice?",
				"Is there synergy or anergy when the players work together? Why?",
				"Do all the players have the same role, or do they have special jobs?",
				"Cooperation is greatly enhanced when there is no way an individual can do a task alone. Does my game have tasks like that?",
				"Tasks that force communication inspire cooperation. Do any of my tasks force communication?"
			],
			"title": "Cooperation",
			"imageName": "Cooperation",
			"categoriesIds": [4],
			"isFavorite": false
		},
		{
			"id": 45,
			"prompt": "Balancing competition and cooperation can be done in many interesting ways. Use this lens to decide whether they are balanced properly in your game. Ask yourself these questions:",
			"questions": [
				"If \"1\" is Competition and \"10\" is Cooperation, what number should my game get?",
				"Can I give players a choice whether to play cooperatively or competitively?",
				"Does my audience prefer competition, cooperation, or a mix?",
				"Is team competition something that makes sense for my game? Is my game more fun with team competition, or with solo competition?"
			],
			"title": "Competition vs. Cooperation",
			"imageName": "CompetitionCooperation",
			"categoriesIds": [4],
			"isFavorite": false
		},
		{
			"id": 46,
			"prompt": "Ask these questions to determine if your game is giving out the right rewards in the right amounts at the right times:",
			"questions": [
				"What rewards is my game giving out now? Can it give out others as well?",
				"Are players excited when they get rewards in my game, or are they bored by them? Why?",
				"Getting a reward you don't understand is like getting no reward at all. Do my players understand the rewards they are getting?",
				"Are the rewards my game gives out too regular? Is there a way that they could be better connected?",
				"How are my rewards building? Too fast, too slow, or just right?"
			],
			"title": "Reward",
			"imageName": "Reward",
			"categoriesIds": [4],
			"isFavorite": false
		},
		{
			"id": 47,
			"prompt": "Punishment must be used delicately. Balanced appropriately, it will make your game more meaningful, and provide successful players with real sense of pride. To examine the punishment in your game, ask yourself these questions:",
			"questions": [
				"What are the punishments in my game?",
				"Why am I punishing the players? What do I hope to achieve by it?",
				"Do my punishments seem fair to the players? Why or why not?",
				"Is there a way to turn these punishments into rewards and get the same, or a better effect?",
				"Are my strong punishments balanced against commensurately strong rewards?"
			],
			"title": "The Punishment",
			"imageName": "Punishment",
			"categoriesIds": [4],
			"isFavorite": false
		},
		{
			"id": 48,
			"prompt": "Striking the right balance between simplicity and complexity is difficult. Use this lens to help your game become one in which meaningful complexity rises out of a simple system. Ask yourself these questions:",
			"questions": [
				"What elements of innate complexity do I have in my game?",
				"Is there a way this innate complexity could be turned into emergent complexity?",
				"Do elements of emergent complexity arise from my game? If not, why not?",
				"Are there elements of my game that are too simple?"
			],
			"title": "Simplicity/Complexity",
			"imageName": "SimplicityComplexity",
			"categoriesIds": [4],
			"isFavorite": false
		},
		{
			"id": 49,
			"prompt": "Most “classic games” are considered to be masterpiece of elegance. Use this lens to make your game as elegant as possible. Ask yourself these questions:",
			"questions": [
				"What are the elements of my game?",
				"What are the purposes of each element? Count these up to give the element an \"elegance rating.\"",
				"For elements with only one or two purposes, can some of these be combined into each other, or removed altogether?",
				"For elements with several purposes, is it possible for them to take on even more?"
			],
			"title": "Elegance",
			"imageName": "Elegance",
			"categoriesIds": [4],
			"isFavorite": false
		},
		{
			"id": 50,
			"prompt": "Elegance and characters are opposites. They are like miniature version of simplicity and complexity, and must be kept in balance. To make sure your game has lovable, defining quirks, ask yourself these questions:",
			"questions": [
				"Is there anything strange in my game that players talk about excitedly?",
				"Does my game have funny qualities that make it unique?",
				"Does my game have flaws that players like?"
			],
			"title": "Character",
			"imageName": "Character",
			"categoriesIds": [4],
			"isFavorite": false
		},
		{
			"id": 51,
			"prompt": "All games gave some element of imagination, and some element of reality. Use this lens to help find the balance between detail and imagination. Ask yourself these questions:",
			"questions": [
				"What must the player understand to play my game?",
				"Can some element of imagination help them understand that better?",
				"What high-quality, realistic details can we provide in this game?",
				"What details would be low quality if we provided them? - Can imagination fill the gap instead?",
				"Can I give details that the imagination will be able to reuse again and again?",
				"What details that I provide inspire imagination?",
				"What details that I provide stifle imagination?"
			],
			"title": "Imagination",
			"imageName": "Imagination",
			"categoriesIds": [3],
			"isFavorite": false
		},
		{
			"id": 52,
			"prompt": "Giving a game an economy can give it a surprising depth and a life all its own. But like all living things, it can be difficult to control. Use this lens to keep your economy in balance:",
			"questions": [
				"How can my players earn money? Should there be other ways?",
				"What can my players buy? Why?",
				"Are choices about earning and spending meaningful ones?",
				"Is a universal currency a good idea in my game, or should there be specialized currencies?"
			],
			"title": "Economy",
			"imageName": "Economy",
			"categoriesIds": [4],
			"isFavorite": false
		},
		{
			"id": 53,
			"prompt": "There are many types of game balance, and each is important. However, it is easy to get lost in the details, and forget the big picture. Use this simple lens to get out of the mire, and ask yourself the only important question:",
			"questions": [
				"Does my game feel right? Why or why not?"
			],
			"title": "Balance",
			"imageName": "Balance",
			"categoriesIds": [4],
			"isFavorite": false
		},
		{
			"id": 54,
			"prompt": "When you present a puzzle (or a game of any kind) to the players, they should be able to clearly visualize what their first few steps would be. Ask yourself these questions:",
			"questions": [
				"How will players know how to begin solving my puzzle, or playing my game? Do I need to explain it, or is it self-evident?",
				"Does my puzzle of game act like something they have seen before? If it does, how can I daw attention to that similarity? If it does not, how can I make them understand how it does behave?",
				"character"
			],
			"title": "Accessibility",
			"imageName": "Accessibility",
			"categoriesIds": [4],
			"isFavorite": false
		},
		{
			"id": 55,
			"prompt": "Players need to see that they are making progress when solving a difficult problem. To make sure they are getting this feedback, ask yourself these questions:",
			"questions": [
				"What does it mean to make progress in my game or puzzle?",
				"Is there enough progress in my game? Is there a way I can add more interim steps of progressive success?",
				"What progress is visible, and what progress is hidden? Can I find a way to reveal what is hidden?"
			],
			"title": "Visible Progress",
			"imageName": "Progress",
			"categoriesIds": [4],
			"isFavorite": false
		},
		{
			"id": 56,
			"prompt": "Parallelism in your puzzle brings parallel benefits to the player’s experience. To use this lens, ask yourself these questions:",
			"questions": [
				"Are there bottlenecks in my design where players are unable to proceed if they cannot solve a particular challenge? If so, can I add parallel challenges for a player to work on when this challenge stumps them?",
				"If parallel challenges are too similar, the parallelism offers little benefit. Are my parallel challenges different enough from each other to give players the benefit of variety?",
				"Can my parallel challenges be connected somehow? Is there a way that making progress on one can make it easier to solve the others?"
			],
			"title": "Parallelism",
			"imageName": "Parallelism",
			"categoriesIds": [4],
			"isFavorite": false
		},
		{
			"id": 57,
			"prompt": "Pyramids fascinate us because they have a singular highest point. To give your puzzle the allure of the ancient pyramids, ask yourself these questions:",
			"questions": [
				"Is there a way all the pieces of my puzzle can feed into a singular challenge at the end?",
				"Big pyramids are often made of little pyramids — can I have a hierarchy of ever more challenging puzzle elements, gradually leading to a final challenge?",
				"Is the challenge at the top of my pyramid interesting, compelling, and clear? Does it make people want to work in order to get to it?"
			],
			"title": "The Pyramid",
			"imageName": "Pyramid",
			"categoriesIds": [4],
			"isFavorite": false
		},
		{
			"id": 58,
			"prompt": "Puzzle make the player stop and think. To ensure your puzzles are doing everything you want to shape the player experience, ask yourself these questions:",
			"questions": [
				"What are the puzzles in my game?",
				"Should I have more puzzles, or fewer? Why?",
				"Which of the ten puzzle principles apply to each of my puzzles?",
				"Do I have any incongruous puzzles? How can I better integrate them into the game?"
			],
			"title": "The Puzzle",
			"imageName": "Puzzle",
			"categoriesIds": [4],
			"isFavorite": false
		},
		{
			"id": 59,
			"prompt": "This lens has uses beyond just examining your interface, since meaningful control is essential for immersive interactivity. To use this lens, ask yourself these questions:",
			"questions": [
				"When players use the interface, does it do what is expected? If not, why not?",
				"Intuitive interfaces give a feeling of control. Is your interface easy to master, or hard to master?",
				"Do your players feel they have a strong influence over the outcome of the game? If not, how can you change that?",
				"Feeling powerful = feeling in control. Do your players feel powerful? Can you make them feel more powerful somehow?"
			],
			"title": "Control",
			"imageName": "Control",
			"categoriesIds": [3],
			"isFavorite": false
		},
		{
			"id": 60,
			"prompt": "Somehow, the player has a physical interaction with your game. Copying existing physical interfaces in an easy trap to fall into. Use this lens to be sure that your physical interface is well suited to your game by asking these questions:",
			"questions": [
				"What does the player pick up and touch? Can this be made more pleasing?",
				"How does this map to the actions in the game world? Can the mapping be more direct?",
				"If you can't create a custom physical interface, what metaphor are you using when you map the inputs to the game world?",
				"How does the physical interface look under the Lens of the Toy?",
				"How does the player see, hear, and touch the world of the game? Is there a way to include a physical output device that will make the world become more real in the player's imagination?"
			],
			"title": "Physical Interface",
			"imageName": "Physical",
			"categoriesIds": [4],
			"isFavorite": false
		},
		{
			"id": 61,
			"prompt": "Designing virtual interfaces can be very tricky. Ask these questions to make sure that your virtual interface is enhancing player experience as much as possible:",
			"questions": [
				"What information does a player need to receive that isn't obvious just by looking at the game world?",
				"When does the player need this information? All the time? Only occasionally? Only at the end of a level?",
				"How can this information be delivered to the player in a way that won't interfere with the player's interactions with the game world?",
				"Are there elements of the game world that are easier to interact with using a virtual interface (like a pop-up menu, for interface) than they are to interact with directly?",
				"What kind of virtual interface is best suited to my physical interface? Pop-up menus, for example, are a poor match for a gamepad controller?"
			],
			"title": "Virtual Interface",
			"imageName": "Virtual",
			"categoriesIds": [4],
			"isFavorite": false
		},
		{
			"id": 62,
			"prompt": "The ideal interface becomes invisible to the player letting the player’s imagination be completely immersed in the game world. To ensure invisibility, ask yourself these questions:",
			"questions": [
				"What are the player's desires? Does the interface let the players do what they want?",
				"Is the interface simple enough that with practice, players will be able to use it without thinking?",
				"Do new players find the interface intuitive? If not, can it be made more intuitive somehow? Would allowing players to customize the controls help, or hurt?",
				"Does the interface work well in all situations, or are there cases (near a corner, going very fast, etc.) when it behaves in ways that will confuse the player?",
				"Can players continue to use the interface well in stressful situations, or do they start fumbling with the controls, or missing crucial information? if so, how can this be improved?",
				"Does anything confuse players about the interface? On which of the six interface arrows is it happening?",
				"Do players feel a sense of immersion when using the interface?"
			],
			"title": "Transparency",
			"imageName": "Transparency",
			"categoriesIds": [4],
			"isFavorite": false
		},
		{
			"id": 63,
			"prompt": "The player’s feedback from the game comes from many things: judgment, reward, instruction, encouragement, and challenge. Use this lens to be sure your feedback loop is creating the experience you want by continuously asking these questions:",
			"questions": [
				"What do players need to know at this moment?",
				"What do players want to know at this moment?",
				"What do you want players to feel at this moment? How can you give feedback that creates that feeling?",
				"What do the players want to feel at this moment? Is there an opportunity for them to create a situation where they will feel that?",
				"What is the player's goal at this moment? What feedback will help them toward that goal?"
			],
			"title": "Feedback",
			"imageName": "Feedback",
			"categoriesIds": [3, 4],
			"isFavorite": false
		},
		{
			"id": 64,
			"prompt": "Juicy interfaces are fun the moment you pick them up. To maximize juiciness, ask yourself these questions:",
			"questions": [
				"Is my interface giving the player continuous feedback for their actions? If not, why not?",
				"Is second-order motion created by the actions of the player? Is this motion powerful and interesting?",
				"Juicy systems reward the player many ways at once. When I give the player a reward, how many ways am I simultaneously rewarding them? can I find more ways?"
			],
			"title": "Juiciness",
			"imageName": "Juiciness",
			"categoriesIds": [4],
			"isFavorite": false
		},
		{
			"id": 65,
			"prompt": "Some actions and interfaces are so intuitive that animals were doing them millions of years ago. To capture the power of primality, ask yourself these questions:",
			"questions": [
				"What parts of my game are so primal an animal could play? Why?",
				"What parts of my game could be more primal?"
			],
			"title": "Primality",
			"imageName": "Primality",
			"categoriesIds": [3, 4],
			"isFavorite": false
		},
		{
			"id": 66,
			"prompt": "Choosing how to map game information to channels and dimensions is the heart of designing your game interface. Use this lens to make sure you do it thoughtfully and well. Ask yourself these questions:",
			"questions": [
				"What data needs to travel to and from the player?",
				"What data is most important?",
				"What channels do I have available to transmit this data?",
				"Which channels are most appropriate for which data? Why?",
				"Which dimensions are available on the different channels?",
				"How should I use those dimensions?"
			],
			"title": "Channels and Dimensions",
			"imageName": "ChannelsDimensions",
			"categoriesIds": [4],
			"isFavorite": false
		},
		{
			"id": 67,
			"prompt": "An interface of any complexity is going to require modes. To make sure your modes are the player feel powerful and in control, and do not confuse or overwhelm, ask yourself these questions:",
			"questions": [
				"What modes do I need in my game? Why?",
				"Can any modes be collapsed, or combined?",
				"Are any of the modes overlapping? If so, can I put them on different input channels?",
				"When the game changes modes, how does the player know that? Can the game communicate the mode change in more than one way?"
			],
			"title": "Modes",
			"imageName": "Modes",
			"categoriesIds": [4],
			"isFavorite": false
		},
		{
			"id": 68,
			"prompt": "Memorable moments are stars that make up the constellation of your interest curve. To chart what is most important, ask yourself these questions:",
			"questions": [
				"What are the key moments in my game?",
				"How can I make each moment as powerful as possible?"
			],
			"title": "Moments",
			"imageName": "Moments",
			"categoriesIds": [0],
			"isFavorite": false
		},
		{
			"id": 69,
			"prompt": "What captivates the human mind often seems different for every person - but in fact it is remarkably similar for everyone. To see how player’s interest in your experience changes over time, ask yourself these questions:",
			"questions": [
				"If I draw an interest curve of my experience, how is it generally shaped?",
				"Does it have a hook?",
				"Does it have gradually rising interest, punctuated by periods of rest?",
				"Does it have gradually rising interest, punctuated by periods of rest?",
				"What changes would give me a better interest curve?",
				"Is there a fractal structure to my interest curve? Should there be?",
				"Do my intuitions about the interest curve match the observed interest of the players? If I ask play-testers to draw an interest curve, what does it look like?"
			],
			"title": "Interest Curve",
			"imageName": "InterestCurve",
			"categoriesIds": [0],
			"isFavorite": false
		},
		{
			"id": 70,
			"prompt": "Some things are just interesting. Use this lens to be sure your game has inherently interesting qualities by asking yourself these questions:",
			"questions": [
				"What aspects of my game will capture the interest of a player immediately?",
				"Does my game let the player see or do something they have never seen or done before?",
				"What base instincts does my game appeal to? Can it appeal to more of them?",
				"What higher instincts does my game appeal to? Can it appeal to more of those?",
				"Does dramatic change and anticipation of dramatic change happen in my game? How can it be more dramatic?"
				],
			"title": "Inherent Interest",
			"imageName": "InherentInterest",
			"categoriesIds": [0],
			"isFavorite": false
		},
		{
			"id": 71,
			"prompt": "Beauty is mysterious. Why, for example, do the most beautiful things have a touch of sadness about them? Use this lens to contemplate the mysteries of beauty in your game by asking yourself these questions:",
			"questions": [
				"What elements make up my game? How can each one be more beautiful?",
				"Some things are not beautiful in themselves, but are beautiful in combination. How can the elements of my game be composed in a way that is poetic and beautiful?",
				"What does beauty mean within the context of my game?"
			],
			"title": "Beauty",
			"imageName": "Beauty",
			"categoriesIds": [0],
			"isFavorite": false
		},
		{
			"id": 72,
			"prompt": "One key indicator that someone is enjoying an experience is that they have projected their imaginations into it. To examine whether your game is well suited to introduce projection for your players, ask yourself these questions:",
			"questions": [
				"What is there in my game that players can relate to? What else can I add?",
				"What is there in my game that will capture a player's imagination? What else can I add?",
				"Are there places in the game that players have always wanted to visit?",
				"Does the player get to be a character they could imagine themselves to be?",
				"Are there other characters that the players would be interested to meet (or to spy on)?",
				"Do the players get to do things that they would like to do in real life, but can't?",
				"Is there an activity in the game that once a player starts doing, it is hard to stop?"
			],
			"title": "Projection",
			"imageName": "Projection",
			"categoriesIds": [0],
			"isFavorite": false
		},
		{
			"id": 73,
			"prompt": "A good game is a machine that generates stories when people play it. To make sure your story machine is as productive as possible, ask yourself these questions:",
			"questions": [
				"When players have different choices about how to achieve goals, new and different stories can arise. How can I add more of these choices?",
				"Different conflicts lead to different stories. How can I allow more types of conflict to arise from my game?",
				"When players can personalize the characters and setting, they will care more about story outcomes, and similar stories can start to feel very different. How can I let players personalize the story?",
				"Good stories have good interest curves. Do my rules lead to stories with good interest curves?",
				"A story is only good if you can tell it. Who can your players tell the story to that will actually care?"
			],
			"title": "Story Machine",
			"imageName": "StoryMachine",
			"categoriesIds": [0],
			"isFavorite": false
		},
		{
			"id": 74,
			"prompt": "A goal with no obstacles is not worth pursuing. Use this lens to make sure your obstacles are ones that your players will want to overcome.",
			"questions": [
				"What is the relationship between the main character and the goal? Why does the character care about it?",
				"What are the obstacles between the character and the goal?",
				"Is there an antagonist who is behind the obstacles? What is the relationship between the protagonist and the antagonist?",
				"Do the obstacles gradually increase in difficulty?",
				"Some say \"The bigger the obstacle, the better the story.\" Are you obstacles big enough? Can they be bigger?",
				"Great stories often involve the protagonist transforming in order to overcome the obstacle. How does your protagonist transform?"
			],
			"title": "Obstacle",
			"imageName": "Obstacle",
			"categoriesIds": [0],
			"isFavorite": false
		},
		{
			"id": 75,
			"prompt": "To make sure you have the right mix of simplicity and transcendence, ask yourself these questions:",
			"questions": [
				"How is my world simpler than the real world? Can it be simpler in other ways?",
				"What kind of transcendent power do I give to the player? How can I give even more without removing challenge from the game?",
				"Is my combination of simplicity and transcendence contrived, or does it provide my players with a special kind of wish fulfillment?"
			],
			"title": "Simplicity and Transcendence",
			"imageName": "SimplicityTranscendence",
			"categoriesIds": [0],
			"isFavorite": false
		},
		{
			"id": 76,
			"prompt": "To be sure the story in your game is as good as it can be, ask yourself these questions:",
			"questions": [
				"Does my story have elements that qualify it as a heroic story?",
				"If so, how does it match up with the structure of the Hero's Journey?",
				"Would my story be improved by including more archetypical elements?",
				"Does my story match this form so closely that it feels hackneyed?"
			],
			"title": "The Hero's Journey",
			"imageName": "Journey",
			"categoriesIds": [0],
			"isFavorite": false
		},
		{
			"id": 77,
			"prompt": "having weird things in your story can help give meaning to unusual game mechanics, capture the interest of the player, and make your world seem special. Too much weirdness, through, will render your story puzzling and inaccessible. To make sure your story is the good kind of weird, ask yourself these questions:",
			"questions": [
				"What's the weirdest thing in my story?",
				"How can I make sure that the weirdest thing doesn't confuse or alienate the player?",
				"If there are multiple weird things, should I maybe get rid of, or coalesce, some of them?",
				"If there is nothing weird in my story, is the story still interesting?"
			],
			"title": "The Weirdest Thing",
			"imageName": "WeirdestThing",
			"categoriesIds": [0],
			"isFavorite": false
		},
		{
			"id": 78,
			"prompt": "To be sure the story in your game is as good as it can be, ask yourself these questions:",
			"questions": [
				"Does my game really need a story? Why?",
				"Why will players be interested in this story?",
				"How does the story support the other parts of the tetrad (aesthetics, technology, gameplay)? Can it do a better job?",
				"How do the other parts of the tetrad support the story? Can they do a better job?",
				"How can my story be better?"
			],
			"title": "Story",
			"imageName": "Story",
			"categoriesIds": [0],
			"isFavorite": false
		},
		{
			"id": 79,
			"prompt": "A feeling of freedom is one of the things that separates games from other forms of entertainment. To make sure your players feel as free as possible, ask yourself these questions:",
			"questions": [
				"When do my players have freedom of action? Do they feel free at these times?",
				"When are they constrained? Do they feel constrained at these times?",
				"Are there any places I can let them feel more free than they do now?",
				"Are there any places where they are overwhelmed by too much freedom?"
			],
			"title": "Freedom",
			"imageName": "Freedom",
			"categoriesIds": [0],
			"isFavorite": false
		},
		{
			"id": 80,
			"prompt": "Deep down, everyone wants to be helpful. To channel this helpful spirit toward engaging gameplay, ask yourself these questions:",
			"questions": [
				"Within the context of the game, who is the player helping?",
				"Can I make the player feel more connected to the characters who need help?",
				"Can I better tell the story of how meeting game goals helps someone?",
				"How can the helped characters show their appreciation?"
			],
			"title": "Help",
			"imageName": "Help",
			"categoriesIds": [0],
			"isFavorite": false
		},
		{
			"id": 81,
			"prompt": "Every designer has a vision of what they would like the players to do to have an ideal play experience. To help ensure the players do these things of their own free will, ask yourself these questions:",
			"questions": [
				"Ideally, what would I like the players to do?",
				"Can I set constraints to get players to do it?",
				"Can I set goals to get players to do it?",
				"Can I design my interface to get players to do it? ",
				"Can I use visual design to get players to do it?",
				"Can I use in-game characters to get players to do it?",
				"Can I use music or sound to get players to do it?",
				"Is there some other method I can use to coerce players toward ideal behavior without impinging on their feeling of freedom?",
				"Is my design inducing desires I'd rather the player not have?"
			],
			"title": "Indirect Control",
			"imageName": "IndirectControl",
			"categoriesIds": [3],
			"isFavorite": false
		},
		{
			"id": 82,
			"prompt": "Characters should fulfill their roles in the game world, but when possible, also serve as the minions of the game designer, ensuring an engaging experience for the player. To make sure your characters are living up to this responsibility, ask yourself these questions:",
			"questions": [
				"What do I want the player to experience?",
				"How can the characters help fulfill this experience, without compromising their goals in the game world?"
			],
			"title": "Collusion",
			"imageName": "Collusion",
			"categoriesIds": [4],
			"isFavorite": false
		},
		{
			"id": 83,
			"prompt": "Everyone has secret wishes and desires. To be sure your world fulfill them, ask yourself these questions:",
			"questions": [
				"What fantasy does my would fulfill?",
				"Who does the player fantasize about being?",
				"What does my player fantasize about doing there?"
			],
			"title": "Fantasy",
			"imageName": "Fantasy",
			"categoriesIds": [0, 3],
			"isFavorite": false
		},
		{
			"id": 84,
			"prompt": "The world of your game is a thing that exist apart. Your game is a doorway to this magic place that exists only in the imagination pf your players. to ensure your world has power and integrity, ask yourself these questions:",
			"questions": [
				"How is my world better than the real world?",
				"Can there be multiple gateways to my world? How do they differ? How do they support each other?",
				"Is my world centered on a single story, or could many stories happen here?"
			],
			"title": "The World",
			"imageName": "World",
			"categoriesIds": [4],
			"isFavorite": false
		},
		{
			"id": 85,
			"prompt": "The avatar is the player’s gateway into the world of the game. To ensure your avatar brings out as much of the player’s identity as possible, ask yourself these questions:",
			"questions": [
				"Is my avatar an ideal form likely to appeal to my players?",
				"Does my avatar have iconic qualities that let a player project themselves into the character?"
			],
			"title": "The Avatar",
			"imageName": "Avatar",
			"categoriesIds": [3],
			"isFavorite": false
		},
		{
			"id": 86,
			"prompt": "To make sure your characters are doing everything your game needs them to do, ask yourself these questions:",
			"questions": [
				"What are the roles I need the characters to fill?",
				"What characters have I already imagined?",
				"Which characters map well to which roles?",
				"Can any characters fill more than one role?",
				"Do I need to change the characters to better fit the roles?",
				"Do I need any new characters?"
			],
			"title": "Character Function",
			"imageName": "CharacterFunction",
			"categoriesIds": [4],
			"isFavorite": false
		},
		{
			"id": 87,
			"prompt": "To ensure that the traits of a character show in what they say and do, ask yourself these questions:",
			"questions": [
				"What traits define my character?",
				"How do these traits manifest themselves in the words, actions, and appearance of my character?"
			],
			"title": "Character Traits",
			"imageName": "Traits",
			"categoriesIds": [0],
			"isFavorite": false
		},
		{
			"id": 88,
			"prompt": "The relationships between your characters can be understood by creating a graph with one axis labeled hostile/friendly, and the other labeled submissive/dominant. Pick a character, put it in the middle, and plot out where other characters lie relative to that character. Ask yourself these questions:",
			"questions": [
				"Are there any gaps in the chart? Why are they there? Would it be better if the gaps were filled?",
				"Are there \"extreme characters\" on the graph? If not, would it be better if there were?",
				"Are the character's friends in the same quadrant, or different quadrants? What if that were different?"
			],
			"title": "Interpersonal Circumplex",
			"imageName": "InterpersonalCircumplex",
			"categoriesIds": [0],
			"isFavorite": false
		},
		{
			"id": 89,
			"prompt": "To better flesh out your characters’ relationships, make a list of all your characters, and ask yourself these questions:",
			"questions": [
				"How, specifically, does each character feel about each of the others?",
				"Are there any connections unaccounted for? How can I use those?",
				"Are there too many similar connections? How can they be more different?"
			],
			"title": "The Character Web",
			"imageName": "CharacterWeb",
			"categoriesIds": [0],
			"isFavorite": false
		},
		{
			"id": 90,
			"prompt": "When people interact, they take on different behavior depending on their status level. To make sure your characters more aware of each other, ask yourself these questions:",
			"questions": [
				"What are the relative status levels of the characters in my game?",
				"How can they show appropriate status behaviors?",
				"Conflicts of status are interesting — how are my characters vying for status?",
				"Changes of status are interesting — where do they happen in my game?",
				"How am I giving the player a chance to express status?"
			],
			"title": "Status",
			"imageName": "Status",
			"categoriesIds": [0],
			"isFavorite": false
		},
		{
			"id": 91,
			"prompt": "We pay attention to character transformations because we care about what might change us. To ensure your character are transforming in interesting ways, ask yourself these questions:",
			"questions": [
				"How does each of my characters change throughout the game?",
				"How am I communicating those changes to the player? - Can I communicate them more clearly, or more strongly?",
				"Is there enough change?",
				"Are the changes surprising and interesting?",
				"Are the changes believable?"
			],
			"title": "Character Transformation",
			"imageName": "CharacterTransformation",
			"categoriesIds": [0],
			"isFavorite": false
		},
		{
			"id": 92,
			"prompt": "A good game cannot contain properties that defeat the game’s very purpose. To remove those contradictory qualities, ask yourself these questions:",
			"questions": [
				"What is the purpose of my game?",
				"What are the purposes of each subsystem in my game?",
				"Is there anything at all in my game that contradicts these purposes?",
				"If so, how can I change that?"
			],
			"title": "Inner Contradiction",
			"imageName": "InnerContradiction",
			"categoriesIds": [0],
			"isFavorite": false
		},
		{
			"id": 93,
			"prompt": "Certain things feel special and wonderful because of their natural, organic design. To ensure your game has these properties, ask yourself these questions:",
			"questions": [
				"Does my design have a special feeling of life, or do parts of my design feel dead? What would make my design feel more alive?",
				"Which of Alexander's fifteen qualities does my design have?",
				"Could it have more of them, somehow?",
				"Where does my design feel like myself?"
			],
			"title": "The Nameless Quality",
			"imageName": "NamelessQuality",
			"categoriesIds": [0],
			"isFavorite": false
		},
		{
			"id": 94,
			"prompt": "Atmosphere is invisible and intangible. But somehow it envelops us, permeates us, and makes us part of the world. To make sure the atmosphere of your world is properly intoxicating, ask yourself these",
			"questions": [
				"Without using words, how can I describe the atmosphere of my game?",
				"How can I use artistic content (visual and audio) to deepen that atmosphere?"
			],
			"title": "Atmosphere",
			"imageName": "Atmosphere",
			"categoriesIds": [0],
			"isFavorite": false
		},
		{
			"id": 95,
			"prompt": "For thousand of years, man has loved to sit and watch others play games - but only if the gamers are worth watching. To make sure your game is spectator worthy, ask yourself these questions:",
			"questions": [
				"Is my game interesting to watch? Why or why not?",
				"How can I make it more interesting to watch?"
			],
			"title": "Spectation",
			"imageName": "Spectation",
			"categoriesIds": [4],
			"isFavorite": false
		},
		{
			"id": 96,
			"prompt": "People love to play games with friends. To make sure your game has the right qualities to let people make and keep friendship, ask yourself these questions:",
			"questions": [
				"What kind of friendships are my players looking for?",
				"How do my players break the ice?",
				"Do my players have enough chance to talk to each other? Do they have enough to talk about?",
				"When is the moment they become friends?",
				"What tools do I give the players to maintain their friendships?"
			],
			"title": "Friendship",
			"imageName": "Friendship",
			"categoriesIds": [0],
			"isFavorite": false
		},
		{
			"id": 97,
			"prompt": "When players get a chance to express themselves, it makes them feel alive, proud, important, and connected. To use this lens, ask yourself these questions:",
			"questions": [
				"How am I letting players express themselves?",
				"What ways am i forgetting?",
				"Are players proud of their identity? Why or why not?"
			],
			"title": "Expression",
			"imageName": "Expression",
			"categoriesIds": [3],
			"isFavorite": false
		},
		{
			"id": 98,
			"prompt": "To make sure your game foster strong community, ask yourself these questions:",
			"questions": [
				"What conflict is at the heart of my community?",
				"How does architecture shape my community?",
				"Does my game support three levels of experience?",
				"Are there community events?",
				"Why do players need each other?"
			],
			"title": "Community",
			"imageName": "Community",
			"categoriesIds": [3],
			"isFavorite": false
		},
		{
			"id": 99,
			"prompt": "To make sure your griefing is minimazed, ask yourself these questions:",
			"questions": [
				"What systems in my game are easy to grief?",
				"How can I make my game boring to grief?",
				"Am I ignoring my loopholes?"
			],
			"title": "Griefing",
			"imageName": "Griefing",
			"categoriesIds": [3],
			"isFavorite": false
		},
		{
			"id": 100,
			"prompt": "If the creators of a game do not love it, the game will surely fail. To use this lens, ask yourself these questions:",
			"questions": [
				"Do I love my project? If not, how can I change that?",
				"Does everyone on the team love the project? If not, how can that be changed?"
			],
			"title": "Love",
			"imageName": "Love",
			"categoriesIds": [1],
			"isFavorite": false
		},
		{
			"id": 101,
			"prompt": "To make sure your team is operating like a well-oiled machine, ask yourself these questions:",
			"questions": [
				"Is this the right team for the project? Why?",
				"Is the team communicating objectively?",
				"Is the team communicating clearly?",
				"Is the team comfortable with each other?",
				"Is there an air of trust and respect among the team?",
				"Is the team ultimately able to unify around decisions?"
			],
			"title": "The Team",
			"imageName": "Team",
			"categoriesIds": [1],
			"isFavorite": false
		},
		{
			"id": 102,
			"prompt": "To ensure you are writing the documents you need, and skipping the ones you don’t, ask yourself these questions:",
			"questions": [
				"What do we need to remember while making this game?",
				"What need to be communicated while making this game?"
			],
			"title": "Documentation",
			"imageName": "Documentation",
			"categoriesIds": [1, 3],
			"isFavorite": false
		},
		{
			"id": 103,
			"prompt": "Playtesting is your chance to see your game in action. To ensure your playlists are as good as they can be, ask yourself these questions:",
			"questions": [
				"Why are we doing a play-test?",
				"Who should be there?",
				"Where should we hold it?",
				"What will we look for?",
				"How will we get information we need?"
			],
			"title": "Playtesting",
			"imageName": "Playtesting",
			"categoriesIds": [1, 3],
			"isFavorite": false
		},
		{
			"id": 104,
			"prompt": "To make sure you are using the right technologies in the right way, ask yourself these questions:",
			"questions": [
				"What technologies will help deliver the experience I want to create?",
				"Am I using these technologies in ways that are foundational or decorational?",
				"If I'm not using them foundationally, should I be using them at all?",
				"Is this technology as cool as I think it is?",
				"Is there a \"disruptive technology\" I should consider instead?"
			],
			"title": "Technology",
			"imageName": "Technology",
			"categoriesIds": [4],
			"isFavorite": false
		},
		{
			"id": 105,
			"prompt": "If you would like to know the future of a particular game, technology, ask yourself these question, and make your answers as concrete as possible:",
			"questions": [
				"What will ____ be like two years from now? Why?",
				"What will ____ be like four years from now? Why?",
				"What will ____ be like ten years from now? Why?"
			],
			"title": "The Crystal Ball",
			"imageName": "CrystalBall",
			"categoriesIds": [0],
			"isFavorite": false
		},
		{
			"id": 106,
			"prompt": "To be sure you are headed to a better world, ask yourself these questions:",
			"questions": [
				"Am I creating something that feels magical?",
				"Do people get excited just hearing about what I am making? Why or why not?",
				"Does my game advance the state of the are in a meaningful way?",
				"Does my game make the world a better place?"
			],
			"title": "Utopia",
			"imageName": "Utopia",
			"categoriesIds": [0, 1],
			"isFavorite": false
		},
		{
			"id": 107,
			"prompt": "If you are making a game for someone else, you should probably know what they want. Ask yourself these questions:",
			"questions": [
				"What does client say he wants?",
				"What does the client think he wants?",
				"What does the client really want, deep down in his heart?"
			],
			"title": "The Client",
			"imageName": "Client",
			"categoriesIds": [1],
			"isFavorite": false
		},
		{
			"id": 108,
			"prompt": "To ensure your pitch is as good as it can be, ask yourself these questions:",
			"questions": [
				"Why are you pitching this game to this client?",
				"What will you consider \"a successful pitch\"?",
				"What's in it for the people you are pitching to?",
				"What do the people you are pitching to need to know about your game?"
			],
			"title": "The Pitch",
			"imageName": "Pitch",
			"categoriesIds": [1],
			"isFavorite": false
		},
		{
			"id": 109,
			"prompt": "Profits keep the game industry alive. Ask these questions to help your game become profitable:",
			"questions": [
				"Where does the money go in my game's business model? Why?",
				"How much will it cost to produce, market, distribute, and maintain this game? Why?",
				"How much money will this game make? Why do I think that?",
				"What are the barriers to entry in the market for this game?"
			],
			"title": "Profit",
			"imageName": "Profit",
			"categoriesIds": [2],
			"isFavorite": false
		},
		{
			"id": 110,
			"prompt": "Games create experiences, and experiences change people. To make sure only the best changes happen to your players, ask yourself these questions:",
			"questions": [
				"How can my game change players for the better?",
				"How can my game change players for the worse?"
			],
			"title": "Transformation",
			"imageName": "Transformation",
			"categoriesIds": [3],
			"isFavorite": false
		},
		{
			"id": 111,
			"prompt": "To live up to your obligations as a game designer, ask yourself this question:",
			"questions": [
				"Does my game help people? How?"
			],
			"title": "Responsibility",
			"imageName": "Responsibility",
			"categoriesIds": [1],
			"isFavorite": false
		},
		{
			"id": 112,
			"prompt": "To remember to only work on what is important, ask yourself this question:",
			"questions": [
				"Is making this game worth my time?"
			],
			"title": "The Raven",
			"imageName": "Raven",
			"categoriesIds": [1],
			"isFavorite": false
		},
		{
			"id": 113,
			"prompt": "To make sure you are working towards your one true purpose, ask yourself the only question that matters:",
			"questions": [
				"Why am I doing this?"
			],
			"title": "Your Secret Purpose",
			"imageName": "Purpose",
			"categoriesIds": [1],
			"isFavorite": false
		}
	]
}
